Assignment_4_Jessica_Alex
…
# C. Determine the best graphical way to depict abundance and traps data: column or line graphs? Create column graphs and line graphs of lobster abundance by year at each of the 5 sites

# First, create summary table of counts of lobsters at each site for each year

size_summary_graphs <- lobster_abundance_tidy %>% 
  group_by(SITE, YEAR) %>% 
  filter(YEAR == "2012" | YEAR == "2013" | YEAR == "2014" | YEAR == "2015" | YEAR == "2016" | YEAR == "2017") %>% 
  summarize(
    sample_size = length(SIZE)
  )

size_summary_graphs

## # A tibble: 30 x 3
## # Groups:   SITE [?]
##    SITE   YEAR sample_size
##    <fct> <int>       <int>
##  1 AQUE   2012          38
##  2 AQUE   2013          32
##  3 AQUE   2014         100
##  4 AQUE   2015          83
##  5 AQUE   2016          48
##  6 AQUE   2017          67
##  7 CARP   2012          78
##  8 CARP   2013          93
##  9 CARP   2014          78
## 10 CARP   2015          90
## # ... with 20 more rows
…
# maybe this is useful somehow? counts of lobster sizes at each site

lobster_counts <- lobster_abundance_tidy %>% 
  filter(YEAR == "2017") %>%
  mutate(SIZE >= "83", SIZE <= "82") %>%
  group_by(SITE) %>% 
  select(-MONTH, -DATE, -SBC_LTER_TRANSECT, -LOBSTER_TRANSECT) %>% 
  count(SITE, SIZE)
  
lobster_counts

## # A tibble: 190 x 3
## # Groups:   SITE [5]
##    SITE   SIZE     n
##    <fct> <int> <int>
##  1 AQUE     45     1
##  2 AQUE     50     2
##  3 AQUE     55     1
##  4 AQUE     58     1
##  5 AQUE     60     6
##  6 AQUE     65    11
##  7 AQUE     67     1
##  8 AQUE     68     1
##  9 AQUE     70     6
## 10 AQUE     75     8
## # ... with 180 more rows
…
